url,word
http://www.google.com/#q=life/neg,life/neg
http://www.google.com/#q=birthday/neg,birthday/neg
http://www.google.com/#q=birth/neg,birth/neg
http://www.google.com/#q=nondeath,nondeath
http://www.google.com/#q=at%20death's%20door,at_death's_door
http://www.google.com/#q=defunction,defunction
http://www.google.com/#q=sad%20event,sad_event
http://www.google.com/#q=la%20calavera%20catrina,la_calavera_catrina
http://www.google.com/#q=deathmonger,deathmonger
http://www.google.com/#q=not%20eat,not_eat
http://www.google.com/#q=on%20one's%20deathbed,on_one's_deathbed
http://www.google.com/#q=biostratinomy,biostratinomy
http://www.google.com/#q=deadlihood,deadlihood
http://www.google.com/#q=antilife,antilife
http://www.google.com/#q=immortality/neg,immortality/neg
http://www.google.com/#q=go%20afar,go_afar
http://www.google.com/#q=born/neg,born/neg
http://www.google.com/#q=loss%20of%20life,loss_of_life
http://www.google.com/#q=someone%20die,someone_die
http://www.google.com/#q=prosuicide,prosuicide
http://www.google.com/#q=get%20weapon,get_weapon
http://www.google.com/#q=death%20certificate,death_certificate
http://www.google.com/#q=right%20to%20choose,right_to_choose
http://www.google.com/#q=thanatophile,thanatophile
http://www.google.com/#q=cause%20death,cause_death
http://www.google.com/#q=thanato,thanato
http://www.google.com/#q=shoot%20them,shoot_them
http://www.google.com/#q=live/neg,live/neg
http://www.google.com/#q=premature%20death,premature_death
http://www.google.com/#q=be%20die,be_die
http://www.google.com/#q=cease%20to%20exist,cease_to_exist
http://www.google.com/#q=have%20weapon,have_weapon
http://www.google.com/#q=angel%20of%20death,angel_of_death
http://www.google.com/#q=kill%20someone,kill_someone
http://www.google.com/#q=forswelt,forswelt
http://www.google.com/#q=you%20feel%20remorse,you_feel_remorse
http://www.google.com/#q=get%20gun,get_gun
http://www.google.com/#q=mortiferous,mortiferous
http://www.google.com/#q=you%20die,you_die
http://www.google.com/#q=fight%20enemy,fight_enemy
http://www.google.com/#q=end%20life,end_life
http://www.google.com/#q=feel%20anger,feel_anger
http://www.google.com/#q=self%20slaughter,self_slaughter
http://www.google.com/#q=external%20cause,external_cause
http://www.google.com/#q=/wal,/wal
http://www.google.com/#q=buy%20gun,buy_gun
http://www.google.com/#q=lose%20his%20job,lose_his_job
http://www.google.com/#q=fight%20war,fight_war
http://www.google.com/#q=valley%20of%20death,valley_of_death
http://www.google.com/#q=very%20sad,very_sad
http://www.google.com/#q=mirror%20will,mirror_will
http://www.google.com/#q=protect%20your%20country,protect_your_country
http://www.google.com/#q=verge%20of%20death,verge_of_death
http://www.google.com/#q=they%20die,they_die
http://www.google.com/#q=be%20imprison,be_imprison
http://www.google.com/#q=thanatosis,thanatosis
http://www.google.com/#q=/deed,/deed
http://www.google.com/#q=take%20life,take_life
http://www.google.com/#q=thanatism,thanatism
http://www.google.com/#q=self%20kill,self_kill
http://www.google.com/#q=cruentation,cruentation
http://www.google.com/#q=joint%20will,joint_will
http://www.google.com/#q=have%20heart%20attack,have_heart_attack
http://www.google.com/#q=big%20sleep,big_sleep
http://www.google.com/#q=kill%20your%20self,kill_your_self
http://www.google.com/#q=shoot%20to%20death,shoot_to_death
http://www.google.com/#q=you%20may%20die,you_may_die
http://www.google.com/#q=nonfatally,nonfatally
http://www.google.com/#q=antilifer,antilifer
http://www.google.com/#q=culture%20of%20death,culture_of_death
http://www.google.com/#q=mutual%20will,mutual_will
http://www.google.com/#q=end%20your%20life,end_your_life
http://www.google.com/#q=proabortionist,proabortionist
http://www.google.com/#q=defend%20yourself,defend_yourself
http://www.google.com/#q=pyroptosis,pyroptosis
http://www.google.com/#q=see%20psychiatrist,see_psychiatrist
http://www.google.com/#q=call%20for%20help,call_for_help
http://www.google.com/#q=beat%20to%20death,beat_to_death
http://www.google.com/#q=alive/neg,alive/neg
http://www.google.com/#q=stop%20breathe,stop_breathe
http://www.google.com/#q=act%20of%20violence,act_of_violence
http://www.google.com/#q=pass%20bell,pass_bell
http://www.google.com/#q=jack%20ketch,jack_ketch
http://www.google.com/#q=physical%20state,physical_state
http://www.google.com/#q=take%20aspirin,take_aspirin
http://www.google.com/#q=wheel%20of%20life,wheel_of_life
http://www.google.com/#q=half%20baptism,half_baptism
http://www.google.com/#q=severe%20pain,severe_pain
http://www.google.com/#q=thiopental,thiopental
http://www.google.com/#q=florida%20flambe,florida_flambe
http://www.google.com/#q=pentobarbital,pentobarbital
http://www.google.com/#q=sodium%20thiopental,sodium_thiopental
http://www.google.com/#q=executioner,executioner
http://www.google.com/#q=embutramide,embutramide
http://www.google.com/#q=electric%20chair,electric_chair
http://www.google.com/#q=euthanasia,euthanasia
http://www.google.com/#q=nonexecution,nonexecution
http://www.google.com/#q=sodium%20pentothal,sodium_pentothal
http://www.google.com/#q=instrument%20of%20execution,instrument_of_execution
http://www.google.com/#q=green%20thread,green_thread
http://www.google.com/#q=scaphism,scaphism
http://www.google.com/#q=mebezonium,mebezonium
http://www.google.com/#q=euthanization,euthanization
http://www.google.com/#q=last%20meal,last_meal
http://www.google.com/#q=execute,execute
http://www.google.com/#q=executionist,executionist
http://www.google.com/#q=electrocution,electrocution
http://www.google.com/#q=posthumous%20execution,posthumous_execution
http://www.google.com/#q=methitural,methitural
http://www.google.com/#q=zwischenzug,zwischenzug
http://www.google.com/#q=injection,injection
http://www.google.com/#q=etidocaine,etidocaine
http://www.google.com/#q=potassium%20chloride,potassium_chloride
http://www.google.com/#q=executioneress,executioneress
http://www.google.com/#q=hexobarbital,hexobarbital
http://www.google.com/#q=thiamylal,thiamylal
http://www.google.com/#q=anesthetic,anesthetic
http://www.google.com/#q=necktie%20party,necktie_party
http://www.google.com/#q=smash%20stack,smash_stack
http://www.google.com/#q=barbiturate,barbiturate
http://www.google.com/#q=euthanatize,euthanatize
http://www.google.com/#q=republican%20marriage,republican_marriage
http://www.google.com/#q=pseudoparallelism,pseudoparallelism
http://www.google.com/#q=holographic%20will,holographic_will
http://www.google.com/#q=butobarbital,butobarbital
http://www.google.com/#q=inmate,inmate
http://www.google.com/#q=on%20docket,on_docket
http://www.google.com/#q=nonanesthetic,nonanesthetic
http://www.google.com/#q=sargable,sargable
http://www.google.com/#q=decapitation,decapitation
http://www.google.com/#q=chloroprocaine,chloroprocaine
http://www.google.com/#q=case%20fatality,case_fatality
http://www.google.com/#q=letal,letal
http://www.google.com/#q=intravenous%20anesthetic,intravenous_anesthetic
http://www.google.com/#q=place%20of%20death,place_of_death
http://www.google.com/#q=place%20to%20die,place_to_die
http://www.google.com/#q=mercy%20kill,mercy_kill
http://www.google.com/#q=ecbolic,ecbolic
http://www.google.com/#q=trypanophobia,trypanophobia
http://www.google.com/#q=lethal,lethal
http://www.google.com/#q=heptabarb,heptabarb
http://www.google.com/#q=amiphenazole,amiphenazole
http://www.google.com/#q=semilethal,semilethal
http://www.google.com/#q=carbubarb,carbubarb
http://www.google.com/#q=mercy%20killer,mercy_killer
http://www.google.com/#q=sedative,sedative
http://www.google.com/#q=bromisoval,bromisoval
http://www.google.com/#q=eticyclidine,eticyclidine
http://www.google.com/#q=autoinjection,autoinjection
http://www.google.com/#q=bemegride,bemegride
http://www.google.com/#q=prisoness,prisoness
http://www.google.com/#q=euthanasiate,euthanasiate
http://www.google.com/#q=angel%20of%20mercy,angel_of_mercy
http://www.google.com/#q=colombian%20necktie,colombian_necktie
http://www.google.com/#q=carbromal,carbromal
http://www.google.com/#q=life%20sentence,life_sentence
http://www.google.com/#q=life%20imprisonment,life_imprisonment
http://www.google.com/#q=prison%20sentence,prison_sentence
http://www.google.com/#q=prison%20term,prison_term
http://www.google.com/#q=not%20guilty%20verdict,not_guilty_verdict
http://www.google.com/#q=choose%20victim,choose_victim
http://www.google.com/#q=unimprisonable,unimprisonable
http://www.google.com/#q=imprisonment,imprisonment
http://www.google.com/#q=judicial%20decision,judicial_decision
http://www.google.com/#q=spree%20killer,spree_killer
http://www.google.com/#q=verdict,verdict
http://www.google.com/#q=sentencia,sentencia
http://www.google.com/#q=sentencewise,sentencewise
http://www.google.com/#q=archmurderer,archmurderer
http://www.google.com/#q=be%20execute,be_execute
http://www.google.com/#q=death%20warrant,death_warrant
http://www.google.com/#q=unslain,unslain
http://www.google.com/#q=acquittal/neg,acquittal/neg
http://www.google.com/#q=nonsentence,nonsentence
http://www.google.com/#q=internal%20exile,internal_exile
http://www.google.com/#q=hold%20captive,hold_captive
http://www.google.com/#q=vaticide,vaticide
http://www.google.com/#q=death%20erection,death_erection
http://www.google.com/#q=double%20sawbuck,double_sawbuck
http://www.google.com/#q=patibulary,patibulary
http://www.google.com/#q=humation,humation
http://www.google.com/#q=stop%20live,stop_live
http://www.google.com/#q=deathfic,deathfic
http://www.google.com/#q=besacrificed,besacrificed
http://www.google.com/#q=dieof,dieof
http://www.google.com/#q=one%20out,one_out
http://www.google.com/#q=instadeath,instadeath
http://www.google.com/#q=die,die
http://www.google.com/#q=forthfaring,forthfaring
http://www.google.com/#q=deathfulness,deathfulness
http://www.google.com/#q=kiiled,kiiled
http://www.google.com/#q=untimely%20death,untimely_death
http://www.google.com/#q=bite%20dust,bite_dust
http://www.google.com/#q=thanatomimesis,thanatomimesis
http://www.google.com/#q=kiil,kiil
http://www.google.com/#q=kiils,kiils
http://www.google.com/#q=gonnakill,gonnakill
http://www.google.com/#q=kiéé,kiéé
http://www.google.com/#q=kiýý,kiýý
http://www.google.com/#q=kill,kill
http://www.google.com/#q=commit%20suicide,commit_suicide
http://www.google.com/#q=fatality,fatality
http://www.google.com/#q=kick%20bucket,kick_bucket
http://www.google.com/#q=dead,dead
http://www.google.com/#q=i'm%20die,i'm_die
http://www.google.com/#q=manslaying,manslaying
http://www.google.com/#q=suck%20kumara,suck_kumara
http://www.google.com/#q=top%20oneself,top_oneself
http://www.google.com/#q=nonmortal,nonmortal
http://www.google.com/#q=brink%20of%20death,brink_of_death
http://www.google.com/#q=hangman,hangman
http://www.google.com/#q=bad%20behavior,bad_behavior
http://www.google.com/#q=gallows%20tree,gallows_tree
http://www.google.com/#q=feminicide,feminicide
http://www.google.com/#q=femicide,femicide
http://www.google.com/#q=do%20wrong,do_wrong
http://www.google.com/#q=miss%20person,miss_person
http://www.google.com/#q=murther,murther
http://www.google.com/#q=corporal%20punishment,corporal_punishment
http://www.google.com/#q=vote%20right,vote_right
http://www.google.com/#q=brain%20injury,brain_injury
http://www.google.com/#q=contract%20kill,contract_kill
http://www.google.com/#q=animal%20right,animal_right
http://www.google.com/#q=gallows,gallows
http://www.google.com/#q=feticide,feticide
http://www.google.com/#q=crime%20against%20humanity,crime_against_humanity
http://www.google.com/#q=crib%20death,crib_death
http://www.google.com/#q=software%20error,software_error
http://www.google.com/#q=artificial%20intelligence,artificial_intelligence
http://www.google.com/#q=determine%20guilt,determine_guilt
http://www.google.com/#q=hide%20evidence,hide_evidence
http://www.google.com/#q=human%20right,human_right
http://www.google.com/#q=immoral%20act,immoral_act
http://www.google.com/#q=gun%20lobby,gun_lobby
http://www.google.com/#q=semantic%20error,semantic_error
http://www.google.com/#q=/prisoun,/prisoun
http://www.google.com/#q=prisión,prisión
http://www.google.com/#q=cárcel,cárcel
http://www.google.com/#q=prison,prison
http://www.google.com/#q=carcelage,carcelage
http://www.google.com/#q=jailee,jailee
http://www.google.com/#q=presos,presos
http://www.google.com/#q=co%20detainee,co_detainee
http://www.google.com/#q=iron%20bar,iron_bar
http://www.google.com/#q=prisoner,prisoner
http://www.google.com/#q=ghost%20prisoner,ghost_prisoner
http://www.google.com/#q=nonprison,nonprison
http://www.google.com/#q=prisonhouse,prisonhouse
http://www.google.com/#q=carcerate,carcerate
http://www.google.com/#q=thejoint,thejoint
http://www.google.com/#q=jail,jail
http://www.google.com/#q=prison%20cell,prison_cell
http://www.google.com/#q=enjail,enjail
http://www.google.com/#q=nonjail,nonjail
http://www.google.com/#q=rejail,rejail
http://www.google.com/#q=penal%20correctional,penal_correctional
http://www.google.com/#q=postprison,postprison
http://www.google.com/#q=serve%20time,serve_time
http://www.google.com/#q=reincarcerate,reincarcerate
http://www.google.com/#q=penitentiaryship,penitentiaryship
http://www.google.com/#q=house%20of%20correction,house_of_correction
http://www.google.com/#q=penitentiary,penitentiary
http://www.google.com/#q=stateprison,stateprison
http://www.google.com/#q=unjailed,unjailed
http://www.google.com/#q=behind%20bar,behind_bar
http://www.google.com/#q=engaol,engaol
http://www.google.com/#q=incarcerate,incarcerate
http://www.google.com/#q=reimprison,reimprison
http://www.google.com/#q=jail%20cell,jail_cell
http://www.google.com/#q=cachots,cachots
http://www.google.com/#q=solitary%20confinement,solitary_confinement
http://www.google.com/#q=imprisoner,imprisoner
http://www.google.com/#q=penal%20colony,penal_colony
http://www.google.com/#q=unprison,unprison
http://www.google.com/#q=super%20maximum,super_maximum
http://www.google.com/#q=prison%20guard,prison_guard
http://www.google.com/#q=do%20time,do_time
http://www.google.com/#q=maximum%20security,maximum_security
http://www.google.com/#q=disprison,disprison
http://www.google.com/#q=correctional%20institution,correctional_institution
http://www.google.com/#q=imprison,imprison
http://www.google.com/#q=incarcerable,incarcerable
http://www.google.com/#q=prison%20chaser,prison_chaser
http://www.google.com/#q=correctional%20facility,correctional_facility
http://www.google.com/#q=jailhouse,jailhouse
http://www.google.com/#q=grypsera,grypsera
http://www.google.com/#q=nonincarcerated,nonincarcerated
http://www.google.com/#q=jailkeeper,jailkeeper
http://www.google.com/#q=assign%20servant,assign_servant
http://www.google.com/#q=jailyard,jailyard
http://www.google.com/#q=unincarcerated,unincarcerated
http://www.google.com/#q=détenus,détenus
http://www.google.com/#q=cellmate,cellmate
http://www.google.com/#q=incarceration,incarceration
http://www.google.com/#q=juda%20window,juda_window
http://www.google.com/#q=nonimprisoned,nonimprisoned
http://www.google.com/#q=detainee,detainee
http://www.google.com/#q=gallows%20bird,gallows_bird
http://www.google.com/#q=borstalian,borstalian
