hemp_family,3,pos
smokeeasy,3,pos
medicinal,3,pos
cannabidiol,3,pos
hemp_family,3,pos
hemp_family,3,pos
medicinal,3,pos
sarplier,3,pos
medicinal,3,pos
nicotinism,2,neg
drugtaking,2,neg
quinism,2,neg
antismoke,3,neg
cicutoxin,2,neg
cause_illness,2,neg
antismoke,2,neg
junk_sick,3,neg
madjoun,3,neg
antismoker,2,neg
antismoke,2,neg
narcotrafficker,2,neg
drugtaking,2,neg
quinism,2,neg
cicutoxin,2,neg
cause_illness,2,neg
drugtaking,2,neg
bad_for_health,3,neg
junk_sick,2,neg
solvent_abuse,2,neg
madjoun,3,neg
stoner,3,neg
druggie,3,neg
dope_fiend,2,neg
wastoid,2,neg
crackhead,2,neg
hash_brownie,2,neg
tobaccophile,2,neg
doper,3,neg
wacky_baccy,3,neg
tobaccophobe,2,neg
tobacco_plant,2,neg
antismoker,2,neg
druggy,2,neg
antismoke,2,neg
doofoid,2,neg
drugtaking,2,neg
shroomer,2,neg
smoke_dope,3,neg
trip_on_acid,2,neg
antismoker,3,neg
cause_cancer,3,neg
bad_for_you,2,neg
anticigarette,2,neg
antismoker,2,neg
bad_for_health,3,neg
smoke,3,neu
light_cigarette,2,neu
noninhaler,2,neu
pipeful,3,neu
toxicomania,2,neu
ophidism,2,neu
tobacconist's,2,neu
cigarmaking,2,neu
smokelessly,2,neu
some_drug,2,neu
mithridatism,2,neu
baccy,2,neu
smoke_ring,2,neu
fumacious,2,neu
drugtaking,3,neu
smoke_food,2,neu
from_fire,2,neu
conepiece,3,neu
bong,3,neu
goracco,3,neu
fumée,2,neu
smoke_food,3,neu
fumer,2,neu
tobacco_pipe,2,neu
social_smoker,2,neu
narceine,2,neu
stogie,2,neu
ciggy,2,neu
smoke,3,neu
hookah,3,neu
spliff,3,neu
hash_brownie,2,neu
grow_plant,3,neu
conepiece,3,neu
entactogen,2,neu
pot_brownie,3,neu
bong,3,neu
one_plant_extract,2,neu
tobaccophile,2,neu
monk's_hood,2,neu
recreational_pharmaceutical,2,neu
hemp_family,3,neu
drugtaking,2,neu
tobacco,2,neu
white_sugar,2,neu
toke,3,neu
narceine,2,neu
tobacco_plant,2,neu
picaninny,2,neu
narcotine,2,neu
churrus,3,neu
churrus,3,neu
hemp_family,3,neu
get_high,3,neu
weed,3,neu
pinweed,2,neu
tetrahydrocannabinol,3,neu
tetrahydrocannabivarin,3,neu
tobaccophile,3,neu
cannabinol,3,neu
methylecgonidine,2,neu
cannabinoid,3,neu
one_plant_extract,3,neu
tobacco,2,neu
nicotinism,2,neu
toxicomania,2,neu
psychoactive,2,neu
alaproclate,2,neu
nicotine,2,neu
nicotine_alkaloid,2,neu
narcotine,2,neu
conessine,2,neu
slim,2,neu
entactogenic,2,neu
entactogen,2,neu
entactogen,2,neu
drugtaking,2,neu
one_plant_extract,3,neu
flax_dresser,3,neu
recreational_pharmaceutical,2,neu
trip_on_acid,2,neu
etryptamine,2,neu
spliff,3,neu
toke,3,neu
hippie,3,neu
cannabidiol,3,neu
pot,3,neu
conepiece,3,neu
cottonweed,2,neu
tobacco,2,neu
plant_product,3,neu
pot_brownie,3,neu
one_plant_extract,3,neu
bong,3,neu
plant_fiber,2,neu
mugweed,3,neu
anabasine,2,neu
weed/neg,3,neu
churrus,3,neu
hash_brownie,3,neu
bee_smoker,2,neu
fumer,2,neu
fumée,2,neu
social_smoker,2,neu
smoke,3,neu
smoke_car,2,neu
conepiece,3,neu
richweed,3,neu
smoker,2,neu
hallucinogen,2,neu
tinabinol,2,neu
hemp_family,3,neu
cannabidiol,3,neu
doobie,3,neu
hash_brownie,2,neu
bong_hit,3,neu
narceine,2,neu
antipoppy,2,neu
psychoactive,2,neu
tobaccophile,2,neu
weed,3,neu
tobacco,2,neu
nonsmoked,2,neu
reefer,3,neu
neckweed,3,neu
weed,3,neu
conepiece,3,neu
weedlike,3,neu
stoner,3,neu
spliff,3,neu
get_high,3,neu
pot,3,neu
madjoun,3,neu
stoneweed,3,neu
doobie,2,neu
sweetweed,3,neu
toke,3,neu
cigarette,2,neu
paper_roll,2,neu
doob,3,neu
weedscape,3,neu
ever_smoker,2,neu
cigarettelike,2,neu
spliff,3,neu
cigarlike,2,neu
saltweed,3,neu
leafcup,3,neu
tobacco,2,neu
shred_tobacco,2,neu
tobaccophile,2,neu
smoke_tobacco,2,neu
cigarillo,2,neu
fumée,2,neu
fumer,2,neu
social_smoker,2,neu
