cannabism,3.0,pos
hemp_plant,3.0,pos
cannabism,3.0,neg
pothead,3.0,neg
weedhead,3.0,neg
white_lady,3.0,neg
cannabic,3.0,neu
cannabis,3.0,neu
doober,3.0,neu
ganja,3.0,neu
thc,3.0,neu
hemp_family,3,pos
smokeeasy,3,pos
medicinal,3,pos
cannabidiol,3,pos
hemp_family,3,pos
hemp_family,3,pos
medicinal,3,pos
sarplier,3,pos
medicinal,3,pos
antismoke,3,neg
junk_sick,3,neg
madjoun,3,neg
bad_for_health,3,neg
madjoun,3,neg
stoner,3,neg
druggie,3,neg
doper,3,neg
wacky_baccy,3,neg
smoke_dope,3,neg
antismoker,3,neg
cause_cancer,3,neg
bad_for_health,3,neg
smoke,3,neu
pipeful,3,neu
drugtaking,3,neu
conepiece,3,neu
bong,3,neu
goracco,3,neu
smoke_food,3,neu
smoke,3,neu
hookah,3,neu
spliff,3,neu
grow_plant,3,neu
conepiece,3,neu
pot_brownie,3,neu
bong,3,neu
hemp_family,3,neu
toke,3,neu
churrus,3,neu
churrus,3,neu
hemp_family,3,neu
get_high,3,neu
weed,3,neu
tetrahydrocannabinol,3,neu
tetrahydrocannabivarin,3,neu
tobaccophile,3,neu
cannabinol,3,neu
cannabinoid,3,neu
one_plant_extract,3,neu
one_plant_extract,3,neu
flax_dresser,3,neu
spliff,3,neu
toke,3,neu
hippie,3,neu
cannabidiol,3,neu
pot,3,neu
conepiece,3,neu
plant_product,3,neu
pot_brownie,3,neu
one_plant_extract,3,neu
bong,3,neu
mugweed,3,neu
weed/neg,3,neu
churrus,3,neu
hash_brownie,3,neu
smoke,3,neu
conepiece,3,neu
richweed,3,neu
hemp_family,3,neu
cannabidiol,3,neu
doobie,3,neu
bong_hit,3,neu
weed,3,neu
reefer,3,neu
neckweed,3,neu
weed,3,neu
conepiece,3,neu
weedlike,3,neu
stoner,3,neu
spliff,3,neu
get_high,3,neu
pot,3,neu
madjoun,3,neu
stoneweed,3,neu
sweetweed,3,neu
toke,3,neu
doob,3,neu
weedscape,3,neu
spliff,3,neu
saltweed,3,neu
leafcup,3,neu
