gay_right,3.0,pos
marriage_equality,3.0,pos
gay_marry,3.0,pos
homofascism,3.0,neg
homofascist,3.0,neg
anti_gay,3.0,neg
homosexuality,3.0,neu
same_sex_marriage,3.0,neu
gay_marriage,3.0,neu
lgbt,3.0,neu
doma,3.0,neu
