/c/en/undocumented_immigrant,/c/en/undocumented_immigrant
/c/en/immigrantes,/c/en/undocumented_immigrant
/c/en/emigrant/neg,/c/en/undocumented_immigrant
/c/en/illegal_immigrant,/c/en/undocumented_immigrant
/c/en/immigrant,/c/en/undocumented_immigrant
/c/en/undocumented,/c/en/undocumented_immigrant
/c/en/antiimmigrant,/c/en/undocumented_immigrant
/c/en/illegal_alien,/c/en/undocumented_immigrant
/c/en/illegals,/c/en/undocumented_immigrant
/c/en/migrant,/c/en/undocumented_immigrant
/c/en/immigration,/c/en/undocumented_immigrant
/c/en/immd,/c/en/undocumented_immigrant
/c/en/immd_gov_hk,/c/en/undocumented_immigrant
/c/en/migrant_worker,/c/en/undocumented_immigrant
/c/en/land_immigrant,/c/en/undocumented_immigrant
/c/en/in_migration,/c/en/undocumented_immigrant
/c/en/refugee_regatta,/c/en/undocumented_immigrant
/c/en/non_document,/c/en/undocumented_immigrant
/c/en/permanent_residency,/c/en/undocumented_immigrant
/c/en/black_economy,/c/en/undocumented_immigrant
/c/en/illegal_immigration,/c/en/undocumented_immigrant
/c/en/noncitizen,/c/en/undocumented_immigrant
/c/en/citizen/neg,/c/en/undocumented_immigrant
/c/en/sham_marriage,/c/en/undocumented_immigrant
/c/en/immigrant/neg,/c/en/undocumented_immigrant
/c/en/brain_gain,/c/en/undocumented_immigrant
/c/en/3d_job,/c/en/undocumented_immigrant
/c/en/international_crime,/c/en/undocumented_immigrant
/c/en/réfugiés,/c/en/undocumented_immigrant
/c/en/refugiados,/c/en/undocumented_immigrant
/c/en/asylum_seek,/c/en/undocumented_immigrant
/c/en/refugee,/c/en/undocumented_immigrant
/c/en/self_deportation,/c/en/undocumented_immigrant
/c/en/asylum_seeker,/c/en/undocumented_immigrant
/c/en/non_irish,/c/en/undocumented_immigrant
/c/en/non_national,/c/en/undocumented_immigrant
/c/en/reffo,/c/en/undocumented_immigrant
/c/en/non_citizen,/c/en/undocumented_immigrant
/c/en/étrangers,/c/en/undocumented_immigrant
/c/en/citoyenneté,/c/en/undocumented_immigrant
/c/en/emigrant,/c/en/undocumented_immigrant
/c/en/canadian_born,/c/en/undocumented_immigrant
/c/en/refujew,/c/en/undocumented_immigrant
/c/en/mexifornication,/c/en/undocumented_immigrant
/c/en/permanent_resident,/c/en/undocumented_immigrant
/c/en/citizenship,/c/en/undocumented_immigrant
/c/en/antiforeigner,/c/en/undocumented_immigrant
/c/en/foreigner,/c/en/undocumented_immigrant
/c/en/guest_worker,/c/en/undocumented_immigrant
/c/en/immigrate,/c/en/undocumented_immigrant
/c/en/native_born,/c/en/undocumented_immigrant
/c/en/antialien,/c/en/undocumented_immigrant
/c/en/non_domestic,/c/en/undocumented_immigrant
/c/en/deportation,/c/en/undocumented_immigrant
/c/en/deport,/c/en/undocumented_immigrant
/c/en/self_deport,/c/en/undocumented_immigrant
/c/en/non_household,/c/en/undocumented_immigrant
/c/en/restrictionism,/c/en/undocumented_immigrant
/c/en/deportee,/c/en/undocumented_immigrant
/c/en/black_law,/c/en/undocumented_immigrant
/c/en/anchor_baby,/c/en/undocumented_immigrant
/c/en/xenelasy,/c/en/undocumented_immigrant
/c/en/deportable,/c/en/undocumented_immigrant
/c/en/illegally,/c/en/undocumented_immigrant
/c/en/wetback,/c/en/undocumented_immigrant
/c/en/native/neg,/c/en/undocumented_immigrant
/c/en/passport_baby,/c/en/undocumented_immigrant
/c/en/emigration,/c/en/undocumented_immigrant
/c/en/expatriate,/c/en/undocumented_immigrant
/c/en/birth_tourism,/c/en/undocumented_immigrant
/c/en/iilegal,/c/en/undocumented_immigrant
/c/en/office_pool,/c/en/undocumented_immigrant
/c/en/migrantes,/c/en/undocumented_immigrant
/c/en/countryless,/c/en/undocumented_immigrant
/c/en/native_speak,/c/en/undocumented_immigrant
/c/en/political_asylum,/c/en/undocumented_immigrant
/c/en/illegal,/c/en/undocumented_immigrant
/c/en/alien,/c/en/undocumented_immigrant
/c/en/unnaturalized,/c/en/undocumented_immigrant
/c/en/countrylessness,/c/en/undocumented_immigrant
/c/en/non_paper,/c/en/undocumented_immigrant
/c/en/resident_alien,/c/en/undocumented_immigrant
/c/en/yerida,/c/en/undocumented_immigrant
/c/en/job/neg,/c/en/undocumented_immigrant
/c/en/outmigrant,/c/en/undocumented_immigrant
/c/en/non_local,/c/en/undocumented_immigrant
/c/en/lawbreaker,/c/en/undocumented_immigrant
/c/en/emigre,/c/en/undocumented_immigrant
/c/en/ten_pound_tourist,/c/en/undocumented_immigrant
/c/en/laborer,/c/en/undocumented_immigrant
/c/en/naturalization,/c/en/undocumented_immigrant
/c/en/displace_person,/c/en/undocumented_immigrant
/c/en/asylum,/c/en/undocumented_immigrant
/c/en/career_criminal,/c/en/undocumented_immigrant
/c/en/disnaturalize,/c/en/undocumented_immigrant
/c/en/antiforeign,/c/en/undocumented_immigrant
/c/en/italese,/c/en/undocumented_immigrant
/c/en/non_latin,/c/en/undocumented_immigrant
/c/en/rohingya,/c/en/undocumented_immigrant
/c/en/hispanic,/c/en/undocumented_immigrant
/c/en/undocumented,/c/en/undocumented
/c/en/undocumented_immigrant,/c/en/undocumented
/c/en/non_document,/c/en/undocumented
/c/en/emigrant/neg,/c/en/undocumented
/c/en/immigrantes,/c/en/undocumented
/c/en/immigrant,/c/en/undocumented
/c/en/black_economy,/c/en/undocumented
/c/en/illegals,/c/en/undocumented
/c/en/antiimmigrant,/c/en/undocumented
/c/en/non_paper,/c/en/undocumented
/c/en/migrant,/c/en/undocumented
/c/en/illegal_immigrant,/c/en/undocumented
/c/en/citizen/neg,/c/en/undocumented
/c/en/immigration,/c/en/undocumented
/c/en/immd,/c/en/undocumented
/c/en/illegal_alien,/c/en/undocumented
/c/en/land_immigrant,/c/en/undocumented
/c/en/immd_gov_hk,/c/en/undocumented
/c/en/iilegal,/c/en/undocumented
/c/en/office_pool,/c/en/undocumented
/c/en/sham_marriage,/c/en/undocumented
/c/en/illegal,/c/en/undocumented
/c/en/without_notice,/c/en/undocumented
/c/en/in_migration,/c/en/undocumented
/c/en/3d_job,/c/en/undocumented
/c/en/non_national,/c/en/undocumented
/c/en/non_irish,/c/en/undocumented
/c/en/legal/neg,/c/en/undocumented
/c/en/non_citizen,/c/en/undocumented
/c/en/non_domestic,/c/en/undocumented
/c/en/étrangers,/c/en/undocumented
/c/en/non_household,/c/en/undocumented
/c/en/migrant_worker,/c/en/undocumented
/c/en/uncalendared,/c/en/undocumented
/c/en/self_deportation,/c/en/undocumented
/c/en/noncitizen,/c/en/undocumented
/c/en/brain_gain,/c/en/undocumented
/c/en/refugee_regatta,/c/en/undocumented
/c/en/illegally,/c/en/undocumented
/c/en/permanent_residency,/c/en/undocumented
/c/en/deport,/c/en/undocumented
/c/en/deportation,/c/en/undocumented
/c/en/non_approve,/c/en/undocumented
/c/en/non_declare,/c/en/undocumented
/c/en/antialien,/c/en/undocumented
/c/en/canadian_born,/c/en/undocumented
/c/en/non_certify,/c/en/undocumented
/c/en/immigrant/neg,/c/en/undocumented
/c/en/non_accredit,/c/en/undocumented
/c/en/career_criminal,/c/en/undocumented
/c/en/native_born,/c/en/undocumented
/c/en/self_deport,/c/en/undocumented
/c/en/black_law,/c/en/undocumented
/c/en/non_local,/c/en/undocumented
/c/en/without_permission,/c/en/undocumented
/c/en/illegalise,/c/en/undocumented
/c/en/unskilled,/c/en/undocumented
/c/en/alien,/c/en/undocumented
/c/en/xenelasy,/c/en/undocumented
/c/en/foreigner,/c/en/undocumented
/c/en/asylum_seek,/c/en/undocumented
/c/en/unregistered,/c/en/undocumented
/c/en/job/neg,/c/en/undocumented
/c/en/international_crime,/c/en/undocumented
/c/en/native/neg,/c/en/undocumented
/c/en/non_register,/c/en/undocumented
/c/en/antiforeigner,/c/en/undocumented
/c/en/disnaturalize,/c/en/undocumented
/c/en/mexifornication,/c/en/undocumented
/c/en/unreported,/c/en/undocumented
/c/en/unlawlike,/c/en/undocumented
/c/en/unlicensed,/c/en/undocumented
/c/en/unnaturalized,/c/en/undocumented
/c/en/permanent_resident,/c/en/undocumented
/c/en/non_employ,/c/en/undocumented
/c/en/ployed,/c/en/undocumented
/c/en/unemployed_person,/c/en/undocumented
/c/en/unemployed,/c/en/undocumented
/c/en/deportable,/c/en/undocumented
/c/en/restrictionism,/c/en/undocumented
/c/en/asylum_seeker,/c/en/undocumented
/c/en/non_specialize,/c/en/undocumented
/c/en/réfugiés,/c/en/undocumented
/c/en/refugiados,/c/en/undocumented
/c/en/non_status,/c/en/undocumented
/c/en/non_skilled,/c/en/undocumented
/c/en/refugee,/c/en/undocumented
/c/en/citoyenneté,/c/en/undocumented
/c/en/citizenship,/c/en/undocumented
/c/en/non_attach,/c/en/undocumented
/c/en/impedient,/c/en/undocumented
/c/en/immigrate,/c/en/undocumented
/c/en/uninsured,/c/en/undocumented
/c/en/guest_worker,/c/en/undocumented
/c/en/illegal_immigration,/c/en/undocumented
/c/en/non_qualify,/c/en/undocumented
/c/en/expatriate,/c/en/undocumented
/c/en/illegal_action,/c/en/undocumented
/c/en/deportee,/c/en/undocumented
/c/en/against_law,/c/en/undocumented
/c/en/antiimmigrant,/c/en/antiimmigrant
/c/en/immigrantes,/c/en/antiimmigrant
/c/en/emigrant/neg,/c/en/antiimmigrant
/c/en/immigrant,/c/en/antiimmigrant
/c/en/immd,/c/en/antiimmigrant
/c/en/immigration,/c/en/antiimmigrant
/c/en/immd_gov_hk,/c/en/antiimmigrant
/c/en/in_migration,/c/en/antiimmigrant
/c/en/migrant,/c/en/antiimmigrant
/c/en/undocumented_immigrant,/c/en/antiimmigrant
/c/en/land_immigrant,/c/en/antiimmigrant
/c/en/refugee_regatta,/c/en/antiimmigrant
/c/en/immigrant/neg,/c/en/antiimmigrant
/c/en/antiforeigner,/c/en/antiimmigrant
/c/en/antialien,/c/en/antiimmigrant
/c/en/brain_gain,/c/en/antiimmigrant
/c/en/antiforeign,/c/en/antiimmigrant
/c/en/immigrate,/c/en/antiimmigrant
/c/en/refujew,/c/en/antiimmigrant
/c/en/emigrant,/c/en/antiimmigrant
/c/en/undocumented,/c/en/antiimmigrant
/c/en/refugiados,/c/en/antiimmigrant
/c/en/réfugiés,/c/en/antiimmigrant
/c/en/refugee,/c/en/antiimmigrant
/c/en/illegals,/c/en/antiimmigrant
/c/en/migrant_worker,/c/en/antiimmigrant
/c/en/emigration,/c/en/antiimmigrant
/c/en/reffo,/c/en/antiimmigrant
/c/en/citizen/neg,/c/en/antiimmigrant
/c/en/permanent_residency,/c/en/antiimmigrant
/c/en/restrictionism,/c/en/antiimmigrant
/c/en/citoyenneté,/c/en/antiimmigrant
/c/en/black_law,/c/en/antiimmigrant
/c/en/citizenship,/c/en/antiimmigrant
/c/en/asylum_seek,/c/en/antiimmigrant
/c/en/mexifornication,/c/en/antiimmigrant
/c/en/deportation,/c/en/antiimmigrant
/c/en/anticivism,/c/en/antiimmigrant
/c/en/3d_job,/c/en/antiimmigrant
/c/en/asylum_seeker,/c/en/antiimmigrant
/c/en/yerida,/c/en/antiimmigrant
/c/en/deport,/c/en/antiimmigrant
/c/en/sunday_house,/c/en/antiimmigrant
/c/en/illegal_immigrant,/c/en/antiimmigrant
/c/en/political_asylum,/c/en/antiimmigrant
/c/en/antiminority,/c/en/antiimmigrant
/c/en/italese,/c/en/antiimmigrant
/c/en/civism,/c/en/antiimmigrant
/c/en/étrangers,/c/en/antiimmigrant
/c/en/antiethnic,/c/en/antiimmigrant
/c/en/non_citizen,/c/en/antiimmigrant
/c/en/non_national,/c/en/antiimmigrant
/c/en/antijewish,/c/en/antiimmigrant
/c/en/non_irish,/c/en/antiimmigrant
/c/en/xenelasy,/c/en/antiimmigrant
/c/en/emigre,/c/en/antiimmigrant
/c/en/völkerwanderung,/c/en/antiimmigrant
/c/en/antiworker,/c/en/antiimmigrant
/c/en/black_economy,/c/en/antiimmigrant
/c/en/canadian_born,/c/en/antiimmigrant
/c/en/antireunification,/c/en/antiimmigrant
/c/en/foreigner,/c/en/antiimmigrant
/c/en/antinativist,/c/en/antiimmigrant
/c/en/naturalization,/c/en/antiimmigrant
/c/en/antinationalist,/c/en/antiimmigrant
/c/en/sham_marriage,/c/en/antiimmigrant
/c/en/deportee,/c/en/antiimmigrant
/c/en/antiforeignism,/c/en/antiimmigrant
/c/en/native_born,/c/en/antiimmigrant
/c/en/native/neg,/c/en/antiimmigrant
/c/en/antinationalism,/c/en/antiimmigrant
/c/en/birth_tourism,/c/en/antiimmigrant
/c/en/native_speak,/c/en/antiimmigrant
/c/en/permanent_resident,/c/en/antiimmigrant
/c/en/unnaturalized,/c/en/antiimmigrant
/c/en/passport_baby,/c/en/antiimmigrant
/c/en/migration_period,/c/en/antiimmigrant
/c/en/expatriate,/c/en/antiimmigrant
/c/en/antiagrarian,/c/en/antiimmigrant
/c/en/antigypsy,/c/en/antiimmigrant
/c/en/frenchperson,/c/en/antiimmigrant
/c/en/national_identity,/c/en/antiimmigrant
/c/en/émigré,/c/en/antiimmigrant
/c/en/antipolitical,/c/en/antiimmigrant
/c/en/antigypsyism,/c/en/antiimmigrant
/c/en/anti_canadianism,/c/en/antiimmigrant
/c/en/antigovernmental,/c/en/antiimmigrant
/c/en/illegal_alien,/c/en/antiimmigrant
/c/en/antiquota,/c/en/antiimmigrant
/c/en/ten_pound_tourist,/c/en/antiimmigrant
/c/en/skilled_worker,/c/en/antiimmigrant
/c/en/antipolitician,/c/en/antiimmigrant
/c/en/emigrate,/c/en/antiimmigrant
/c/en/international_crime,/c/en/antiimmigrant
/c/en/self_deportation,/c/en/antiimmigrant
/c/en/migraciones,/c/en/antiimmigrant
/c/en/migración,/c/en/antiimmigrant
/c/en/fresh_off_boat,/c/en/antiimmigrant
/c/en/countryless,/c/en/antiimmigrant
/c/en/migration,/c/en/antiimmigrant
/c/en/illegals,/c/en/illegals
/c/en/undocumented_immigrant,/c/en/illegals
/c/en/undocumented,/c/en/illegals
/c/en/emigrant/neg,/c/en/illegals
/c/en/immigrantes,/c/en/illegals
/c/en/immigrant,/c/en/illegals
/c/en/antiimmigrant,/c/en/illegals
/c/en/illegal_immigrant,/c/en/illegals
/c/en/office_pool,/c/en/illegals
/c/en/iilegal,/c/en/illegals
/c/en/illegal,/c/en/illegals
/c/en/illegal_alien,/c/en/illegals
/c/en/citizen/neg,/c/en/illegals
/c/en/illegally,/c/en/illegals
/c/en/migrant,/c/en/illegals
/c/en/antialien,/c/en/illegals
/c/en/black_economy,/c/en/illegals
/c/en/land_immigrant,/c/en/illegals
/c/en/non_irish,/c/en/illegals
/c/en/non_national,/c/en/illegals
/c/en/legal/neg,/c/en/illegals
/c/en/antiforeigner,/c/en/illegals
/c/en/non_citizen,/c/en/illegals
/c/en/étrangers,/c/en/illegals
/c/en/immigration,/c/en/illegals
/c/en/deport,/c/en/illegals
/c/en/lawbreaker,/c/en/illegals
/c/en/immd,/c/en/illegals
/c/en/immd_gov_hk,/c/en/illegals
/c/en/infiltrator,/c/en/illegals
/c/en/noncitizen,/c/en/illegals
/c/en/career_criminal,/c/en/illegals
/c/en/international_crime,/c/en/illegals
/c/en/refugee_regatta,/c/en/illegals
/c/en/foreigner,/c/en/illegals
/c/en/non_domestic,/c/en/illegals
/c/en/migrant_worker,/c/en/illegals
/c/en/non_household,/c/en/illegals
/c/en/in_migration,/c/en/illegals
/c/en/illegalise,/c/en/illegals
/c/en/alien,/c/en/illegals
/c/en/non_document,/c/en/illegals
/c/en/self_deport,/c/en/illegals
/c/en/law_breaker,/c/en/illegals
/c/en/black_law,/c/en/illegals
/c/en/self_deportation,/c/en/illegals
/c/en/anchor_baby,/c/en/illegals
/c/en/wetback,/c/en/illegals
/c/en/brain_gain,/c/en/illegals
/c/en/xenelasy,/c/en/illegals
/c/en/3d_job,/c/en/illegals
/c/en/unorthodox_entrepreneur,/c/en/illegals
/c/en/illegal_action,/c/en/illegals
/c/en/unlaw,/c/en/illegals
/c/en/queue_jumper,/c/en/illegals
/c/en/arm_bomb,/c/en/illegals
/c/en/sham_marriage,/c/en/illegals
/c/en/felon,/c/en/illegals
/c/en/narcotrafficker,/c/en/illegals
/c/en/person_trafficker,/c/en/illegals
/c/en/unlawlike,/c/en/illegals
/c/en/against_law,/c/en/illegals
/c/en/person_smuggler,/c/en/illegals
/c/en/illegal_immigration,/c/en/illegals
/c/en/deportee,/c/en/illegals
/c/en/consensual_crime,/c/en/illegals
/c/en/job/neg,/c/en/illegals
/c/en/illegal_activity,/c/en/illegals
/c/en/passport_baby,/c/en/illegals
/c/en/unemployed_person,/c/en/illegals
/c/en/smuggler,/c/en/illegals
/c/en/disnaturalize,/c/en/illegals
/c/en/deportable,/c/en/illegals
/c/en/immigrant/neg,/c/en/illegals
/c/en/legalise/neg,/c/en/illegals
/c/en/asylum_seek,/c/en/illegals
/c/en/deportation,/c/en/illegals
/c/en/antiforeign,/c/en/illegals
/c/en/citizeness,/c/en/illegals
/c/en/non_local,/c/en/illegals
/c/en/outener,/c/en/illegals
/c/en/asylum_seeker,/c/en/illegals
/c/en/antismuggler,/c/en/illegals
/c/en/bindle_stiff,/c/en/illegals
/c/en/rastaquouère,/c/en/illegals
/c/en/trafficker,/c/en/illegals
/c/en/fellow_citizen,/c/en/illegals
/c/en/co_citizen,/c/en/illegals
/c/en/permanent_residency,/c/en/illegals
/c/en/citizen,/c/en/illegals
/c/en/amnesty,/c/en/illegals
/c/en/air_grievance,/c/en/illegals
/c/en/aid_and_abet,/c/en/illegals
/c/en/adulterine,/c/en/illegals
/c/en/narcocracy,/c/en/illegals
/c/en/refugiados,/c/en/illegals
/c/en/réfugiés,/c/en/illegals
/c/en/citoyenneté,/c/en/illegals
/c/en/canadian_born,/c/en/illegals
/c/en/refugee,/c/en/illegals
/c/en/refugee_regatta,/c/en/refugee_regatta
/c/en/réfugiés,/c/en/refugee_regatta
/c/en/refugiados,/c/en/refugee_regatta
/c/en/refugee,/c/en/refugee_regatta
/c/en/reffo,/c/en/refugee_regatta
/c/en/refujew,/c/en/refugee_regatta
/c/en/emigrant/neg,/c/en/refugee_regatta
/c/en/immigrantes,/c/en/refugee_regatta
/c/en/immigrant,/c/en/refugee_regatta
/c/en/political_asylum,/c/en/refugee_regatta
/c/en/countryless,/c/en/refugee_regatta
/c/en/migrant,/c/en/refugee_regatta
/c/en/balsero,/c/en/refugee_regatta
/c/en/asylum_seek,/c/en/refugee_regatta
/c/en/antiimmigrant,/c/en/refugee_regatta
/c/en/asylum_seeker,/c/en/refugee_regatta
/c/en/countrylessness,/c/en/refugee_regatta
/c/en/immigrant/neg,/c/en/refugee_regatta
/c/en/reception_center,/c/en/refugee_regatta
/c/en/land_immigrant,/c/en/refugee_regatta
/c/en/displace_person,/c/en/refugee_regatta
/c/en/refugee_camp,/c/en/refugee_regatta
/c/en/sunday_house,/c/en/refugee_regatta
/c/en/asylum,/c/en/refugee_regatta
/c/en/emigrant,/c/en/refugee_regatta
/c/en/boat_person,/c/en/refugee_regatta
/c/en/native_land,/c/en/refugee_regatta
/c/en/immigration,/c/en/refugee_regatta
/c/enm/contre,/c/en/refugee_regatta
/c/enm/contree,/c/en/refugee_regatta
/c/en/in_migration,/c/en/refugee_regatta
/c/en/undocumented_immigrant,/c/en/refugee_regatta
/c/en/city/neg,/c/en/refugee_regatta
/c/en/immd,/c/en/refugee_regatta
/c/en/immd_gov_hk,/c/en/refugee_regatta
/c/en/environmental_refugee,/c/en/refugee_regatta
/c/en/colony/neg,/c/en/refugee_regatta
/c/en/migrant_worker,/c/en/refugee_regatta
/c/en/ocean/neg,/c/en/refugee_regatta
/c/en/deportee,/c/en/refugee_regatta
/c/en/countrylike,/c/en/refugee_regatta
/c/en/border_in,/c/en/refugee_regatta
/c/en/friendly_person,/c/en/refugee_regatta
/c/en/country,/c/en/refugee_regatta
/c/en/visa_run,/c/en/refugee_regatta
/c/en/völkerwanderung,/c/en/refugee_regatta
/c/en/political_division,/c/en/refugee_regatta
/c/en/ruralite,/c/en/refugee_regatta
/c/en/yerida,/c/en/refugee_regatta
/c/en/native_soil,/c/en/refugee_regatta
/c/enm/theode,/c/en/refugee_regatta
/c/en/noncountry,/c/en/refugee_regatta
/c/en/countryperson,/c/en/refugee_regatta
/c/en/economic_refugee,/c/en/refugee_regatta
/c/en/gulf_of_thailand,/c/en/refugee_regatta
/c/en/anticonquest,/c/en/refugee_regatta
/c/en/one's_own_country,/c/en/refugee_regatta
/c/en/cityward,/c/en/refugee_regatta
/c/en/sinistrés,/c/en/refugee_regatta
/c/en/citizen/neg,/c/en/refugee_regatta
/c/en/neighbor_country,/c/en/refugee_regatta
/c/en/neighbour_country,/c/en/refugee_regatta
/c/en/homeling,/c/en/refugee_regatta
/c/en/3d_job,/c/en/refugee_regatta
/c/en/state/neg,/c/en/refugee_regatta
/c/en/one's_origin,/c/en/refugee_regatta
/c/en/one's_upbringing,/c/en/refugee_regatta
/c/en/townpeople,/c/en/refugee_regatta
/c/en/evacuee,/c/en/refugee_regatta
/c/en/arm_themselves,/c/en/refugee_regatta
/c/en/imperial_subject,/c/en/refugee_regatta
/c/en/right_of_reentry,/c/en/refugee_regatta
/c/en/bordraging,/c/en/refugee_regatta
/c/en/small_village,/c/en/refugee_regatta
/c/en/coffin_ship,/c/en/refugee_regatta
/c/en/immigrate,/c/en/refugee_regatta
/c/en/land_area,/c/en/refugee_regatta
/c/en/emigration,/c/en/refugee_regatta
/c/en/transmarine,/c/en/refugee_regatta
/c/en/peopler,/c/en/refugee_regatta
/c/en/national_border,/c/en/refugee_regatta
/c/en/xenelasy,/c/en/refugee_regatta
/c/en/one's_past,/c/en/refugee_regatta
/c/en/people's_republic,/c/en/refugee_regatta
/c/en/political_entity,/c/en/refugee_regatta
/c/en/rural_district,/c/en/refugee_regatta
/c/enm/leod,/c/en/refugee_regatta
/c/en/in_country,/c/en/refugee_regatta
/c/en/judeophilia,/c/en/refugee_regatta
/c/en/kambuja,/c/en/refugee_regatta
/c/en/brisbanian,/c/en/refugee_regatta
/c/en/brisbanite,/c/en/refugee_regatta
/c/en/postliminium,/c/en/refugee_regatta
/c/en/black_law,/c/en/refugee_regatta
/c/en/native/neg,/c/en/refugee_regatta
/c/en/near_abroad,/c/en/refugee_regatta
/c/en/oralmans,/c/en/refugee_regatta
/c/en/re_entrant,/c/en/refugee_regatta
/c/en/oralman,/c/en/refugee_regatta
/c/en/anti_canadianism,/c/en/refugee_regatta
/c/en/illegal_immigrant,/c/en/illegal_immigrant
/c/en/undocumented_immigrant,/c/en/illegal_immigrant
/c/en/illegal_alien,/c/en/illegal_immigrant
/c/en/illegal_immigration,/c/en/illegal_immigrant
/c/en/international_crime,/c/en/illegal_immigrant
/c/en/illegals,/c/en/illegal_immigrant
/c/en/immigrantes,/c/en/illegal_immigrant
/c/en/emigrant/neg,/c/en/illegal_immigrant
/c/en/immigrant,/c/en/illegal_immigrant
/c/en/undocumented,/c/en/illegal_immigrant
/c/en/antiimmigrant,/c/en/illegal_immigrant
/c/en/migrant,/c/en/illegal_immigrant
/c/en/immd,/c/en/illegal_immigrant
/c/en/immigration,/c/en/illegal_immigrant
/c/en/immd_gov_hk,/c/en/illegal_immigrant
/c/en/migrant_worker,/c/en/illegal_immigrant
/c/en/in_migration,/c/en/illegal_immigrant
/c/en/self_deportation,/c/en/illegal_immigrant
/c/en/land_immigrant,/c/en/illegal_immigrant
/c/en/black_economy,/c/en/illegal_immigrant
/c/en/refugee_regatta,/c/en/illegal_immigrant
/c/en/brain_gain,/c/en/illegal_immigrant
/c/en/noncitizen,/c/en/illegal_immigrant
/c/en/office_pool,/c/en/illegal_immigrant
/c/en/iilegal,/c/en/illegal_immigrant
/c/en/illegal,/c/en/illegal_immigrant
/c/en/sham_marriage,/c/en/illegal_immigrant
/c/en/guest_worker,/c/en/illegal_immigrant
/c/en/permanent_residency,/c/en/illegal_immigrant
/c/en/asylum_seek,/c/en/illegal_immigrant
/c/en/asylum_seeker,/c/en/illegal_immigrant
/c/en/non_document,/c/en/illegal_immigrant
/c/en/illegally,/c/en/illegal_immigrant
/c/en/citizen/neg,/c/en/illegal_immigrant
/c/en/deportable,/c/en/illegal_immigrant
/c/en/canadian_born,/c/en/illegal_immigrant
/c/en/deportation,/c/en/illegal_immigrant
/c/en/deport,/c/en/illegal_immigrant
/c/en/restrictionism,/c/en/illegal_immigrant
/c/en/3d_job,/c/en/illegal_immigrant
/c/en/native_born,/c/en/illegal_immigrant
/c/en/legal/neg,/c/en/illegal_immigrant
/c/en/self_deport,/c/en/illegal_immigrant
/c/en/inmigrant,/c/en/illegal_immigrant
/c/en/wetback,/c/en/illegal_immigrant
/c/en/antialien,/c/en/illegal_immigrant
/c/en/human_traffic,/c/en/illegal_immigrant
/c/en/immigrant/neg,/c/en/illegal_immigrant
/c/en/deportee,/c/en/illegal_immigrant
/c/en/non_irish,/c/en/illegal_immigrant
/c/en/non_national,/c/en/illegal_immigrant
/c/en/illegalise,/c/en/illegal_immigrant
/c/en/réfugiés,/c/en/illegal_immigrant
/c/en/refugiados,/c/en/illegal_immigrant
/c/en/refugee,/c/en/illegal_immigrant
/c/en/overstayer,/c/en/illegal_immigrant
/c/en/antiforeigner,/c/en/illegal_immigrant
/c/en/anchor_baby,/c/en/illegal_immigrant
/c/en/non_citizen,/c/en/illegal_immigrant
/c/en/outmigrant,/c/en/illegal_immigrant
/c/en/lawbreaker,/c/en/illegal_immigrant
/c/en/étrangers,/c/en/illegal_immigrant
/c/en/non_domestic,/c/en/illegal_immigrant
/c/en/narcotrafficker,/c/en/illegal_immigrant
/c/en/half_uncle,/c/en/illegal_immigrant
/c/en/non_household,/c/en/illegal_immigrant
/c/en/career_criminal,/c/en/illegal_immigrant
/c/en/emigrant,/c/en/illegal_immigrant
/c/en/person_trafficker,/c/en/illegal_immigrant
/c/en/mexifornication,/c/en/illegal_immigrant
/c/en/emigre,/c/en/illegal_immigrant
/c/en/passport_baby,/c/en/illegal_immigrant
/c/en/permanent_resident,/c/en/illegal_immigrant
/c/en/person_smuggler,/c/en/illegal_immigrant
/c/en/citoyenneté,/c/en/illegal_immigrant
/c/en/legalise/neg,/c/en/illegal_immigrant
/c/en/border_cross,/c/en/illegal_immigrant
/c/en/job/neg,/c/en/illegal_immigrant
/c/en/citizenship,/c/en/illegal_immigrant
/c/en/smuggler,/c/en/illegal_immigrant
/c/en/migrantes,/c/en/illegal_immigrant
/c/en/legalization,/c/en/illegal_immigrant
/c/en/xenelasy,/c/en/illegal_immigrant
/c/en/resident_alien,/c/en/illegal_immigrant
/c/en/foreigner,/c/en/illegal_immigrant
/c/en/birth_tourism,/c/en/illegal_immigrant
/c/en/reffo,/c/en/illegal_immigrant
/c/en/smuggle,/c/en/illegal_immigrant
/c/en/alien,/c/en/illegal_immigrant
/c/en/trafficker,/c/en/illegal_immigrant
/c/en/immigrate,/c/en/illegal_immigrant
/c/en/unorthodox_entrepreneur,/c/en/illegal_immigrant
/c/en/lawbreaking,/c/en/illegal_immigrant
/c/en/black_law,/c/en/illegal_immigrant
/c/en/overstay,/c/en/illegal_immigrant
/c/en/refujew,/c/en/illegal_immigrant
/c/en/gayby_boom,/c/en/illegal_immigrant
/c/en/émigré,/c/en/illegal_immigrant
/c/en/unlaw,/c/en/illegal_immigrant
/c/en/illicite,/c/en/illegal_immigrant
