polygamic,3.0,pos
polygamist,3.0,pos
polygamize,3.0,pos
group_marriage,3.0,pos
polyandrous,3.0,pos
open_marriage,3.0,pos
monogyny,3.0,neg
monogamy,3.0,neg
monogamic,3.0,neg
monogamous,3.0,neg
polygamy,3.0,neu
monogamy/neg,3.0,neu
polygynist,3.0,neu
polygamous,3.0,neu
plural_marriage,3.0,neu
polygyny/neg,3.0,neu
polygyny,3.0,neu
polyandry,3.0,neu
bigamy,3.0,neu
monandry,3.0,neu
polygamia,3.0,neu
marriage,3.0,neu
adelphic,3.0,neu
serial_monogamy,3.0,neu
bigamous,3.0,neu
sodomy,3.0,neu
adulterine,3.0,neu
remarriage,3.0,neu
