/c/en/polygamy,/c/en/polygamy
/c/en/monogamy/neg,/c/en/polygamy
/c/en/polygamic,/c/en/polygamy
/c/en/polyandry/neg,/c/en/polygamy
/c/en/polygynist,/c/en/polygamy
/c/en/polygamous,/c/en/polygamy
/c/en/polygamist,/c/en/polygamy
/c/en/polyandrist,/c/en/polygamy
/c/en/plural_marriage,/c/en/polygamy
/c/en/plyg,/c/en/polygamy
/c/en/polygamize,/c/en/polygamy
/c/en/group_marriage,/c/en/polygamy
/c/en/monoandry,/c/en/polygamy
/c/en/polygyny/neg,/c/en/polygamy
/c/en/polygamy/neg,/c/en/polygamy
/c/en/monogyny,/c/en/polygamy
/c/en/polygyny,/c/en/polygamy
/c/en/polyandry,/c/en/polygamy
/c/en/bigamy,/c/en/polygamy
/c/en/adelphogamy,/c/en/polygamy
/c/en/monandry,/c/en/polygamy
/c/en/agapemone,/c/en/polygamy
/c/en/monogamy,/c/en/polygamy
/c/en/deuterogamy,/c/en/polygamy
/c/en/gyny,/c/en/polygamy
/c/en/digamy,/c/en/polygamy
/c/en/polygamia,/c/en/polygamy
/c/en/digamist,/c/en/polygamy
/c/en/gamous,/c/en/polygamy
/c/en/polyamory,/c/en/polygamy
/c/en/monogynous,/c/en/polygamy
/c/en/monogamic,/c/en/polygamy
/c/en/homoseksualiteit,/c/en/polygamy
/c/en/homosexuality,/c/en/polygamy
/c/en/marriage_lite,/c/en/polygamy
/c/en/arrange_marriage,/c/en/polygamy
/c/en/concubinarian,/c/en/polygamy
/c/en/relationship_anarchy,/c/en/polygamy
/c/en/mormonism,/c/en/polygamy
/c/en/same_sexness,/c/en/polygamy
/c/en/common_law_marriage,/c/en/polygamy
/c/en/mormon,/c/en/polygamy
/c/en/marriage,/c/en/polygamy
/c/enm/mariage,/c/en/polygamy
/c/en/uranism,/c/en/polygamy
/c/en/antihomosexuality,/c/en/polygamy
/c/en/uranist,/c/en/polygamy
/c/en/uranistic,/c/en/polygamy
/c/en/adelphic,/c/en/polygamy
/c/en/homosexualness,/c/en/polygamy
/c/en/mormoness,/c/en/polygamy
/c/en/sororate,/c/en/polygamy
/c/en/putage,/c/en/polygamy
/c/en/mormonize,/c/en/polygamy
/c/en/concubinary,/c/en/polygamy
/c/en/same_sex,/c/en/polygamy
/c/en/female_circumcision,/c/en/polygamy
/c/en/postmarriage,/c/en/polygamy
/c/en/adultery,/c/en/polygamy
/c/en/cohabitation,/c/en/polygamy
/c/en/monogamous,/c/en/polygamy
/c/en/female_genital_mutilation,/c/en/polygamy
/c/en/holy_matrimony,/c/en/polygamy
/c/en/civil_marriage,/c/en/polygamy
/c/en/polyandrous,/c/en/polygamy
/c/en/pedophilia,/c/en/polygamy
/c/en/nonmarriage,/c/en/polygamy
/c/en/serial_monogamy,/c/en/polygamy
/c/en/bigamous,/c/en/polygamy
/c/en/gay_marry,/c/en/polygamy
/c/en/i'm_gay,/c/en/polygamy
/c/en/open_marriage,/c/en/polygamy
/c/en/homosexual,/c/en/polygamy
/c/en/bigamist,/c/en/polygamy
/c/en/ritual_servitude,/c/en/polygamy
/c/en/heterosexual/neg,/c/en/polygamy
/c/en/antihomosexual,/c/en/polygamy
/c/en/sodomy,/c/en/polygamy
/c/en/world's_old_profession,/c/en/polygamy
/c/en/levirate,/c/en/polygamy
/c/en/dowrying,/c/en/polygamy
/c/en/heterosexuality/neg,/c/en/polygamy
/c/en/concubinage,/c/en/polygamy
/c/en/prostitution,/c/en/polygamy
/c/en/marriage_of_convenience,/c/en/polygamy
/c/en/adulterine,/c/en/polygamy
/c/en/homogamous,/c/en/polygamy
/c/en/polygynous,/c/en/polygamy
/c/en/cohabiter,/c/en/polygamy
/c/en/celibacy,/c/en/polygamy
/c/en/sororate_marriage,/c/en/polygamy
/c/en/lesbianism,/c/en/polygamy
/c/en/criminal_conversation,/c/en/polygamy
/c/en/white_marriage,/c/en/polygamy
/c/en/agamous,/c/en/polygamy
/c/en/sodomitic,/c/en/polygamy
/c/en/remarriage,/c/en/polygamy
/c/en/lavender_marriage,/c/en/polygamy
/c/en/levirate_marriage,/c/en/polygamy
/c/en/live_in_sin,/c/en/polygamy
