manqueller,2,neg
kiiler,2,neg
assassinous,2,neg
assassin,2,neg
assassinatrix,2,neg
murtherous,2,neg
garroter,2,neg
second_degree_murder,2,neg
halseman,2,neu
lifetaker,2,neu
underhangman,2,neu
executionism,2,neu
slayer,2,neu
practicalism,2,neu
ultimatist,2,neu
control_person,2,neu
physical_pain,2,neu
correctional,2,neu
be_uncomfortable,2,neu
